[gd_scene load_steps=3 format=2]

[ext_resource path="res://scenes/game/game.tscn" type="PackedScene" id=1]
[ext_resource path="res://scenes/bootsplash/bootsplash.tscn" type="PackedScene" id=2]

[node name="Main" type="Node" index="0"]

[node name="Game" parent="." index="0" instance=ExtResource( 1 )]

[node name="Bootsplash" parent="." index="1" instance=ExtResource( 2 )]


