[gd_scene load_steps=2 format=2]

[ext_resource path="res://addons/scenario_editor/tests/InterpreterTest.gd" type="Script" id=1]

[node name="InterpreterTest" type="Node" index="0"]

script = ExtResource( 1 )
hud_ = null


