; Engine configuration file.
; It's best edited using the editor UI and not directly,
; since the parameters that go here are not all obvious.
;
; Format:
;   [section] ; section goes between []
;   param=value ; assign values to parameters

config_version=3

[application]

config/name="Jenny & the Guy"
run/main_scene="res://scenes/main.tscn"
run/low_processor_mode=true
config/icon="res://icon.png"

[display]

window/size/width=540
window/size/height=960
window/handheld/orientation="portrait"
window/stretch/mode="2d"
window/stretch/aspect="keep"
window/stretch/shrink="1"

[editor_plugins]

enabled=PoolStringArray( "godot-inheritance-dock", "scenario_editor" )

[locale]

locale_filter=[ 0, [  ] ]
