[gd_scene load_steps=3 format=2]

[ext_resource path="res://addons/scenario_editor/editor/nodes/node.tscn" type="PackedScene" id=1]
[ext_resource path="res://addons/scenario_editor/editor/nodes/stop_scenario.gd" type="Script" id=2]



[node name="StopScenarioNode" instance=ExtResource( 1 )]

margin_bottom = 47.0
title = "Stop scenario"
show_close = true
slot/0/left_enabled = true
slot/0/left_type = 0
slot/0/left_color = Color( 1, 1, 1, 1 )
slot/0/right_enabled = false
slot/0/right_type = 0
slot/0/right_color = Color( 1, 1, 1, 1 )
script = ExtResource( 2 )
_sections_unfolded = [ "slot", "slot/0" ]

[node name="Label" type="Label" parent="." index="0"]

anchor_left = 0.0
anchor_top = 0.0
anchor_right = 0.0
anchor_bottom = 0.0
margin_left = 16.0
margin_top = 24.0
margin_right = 133.0
margin_bottom = 38.0
rect_pivot_offset = Vector2( 0, 0 )
rect_clip_content = false
mouse_filter = 2
mouse_default_cursor_shape = 0
size_flags_horizontal = 1
size_flags_vertical = 4
text = "end"
percent_visible = 1.0
lines_skipped = 0
max_lines_visible = -1


